八月 04, 2020 3:14:13 上午 l1j.server.server.datatables.ItemTable allEtcItem
嚴重: Column 'Magic_name' not found.
java.sql.SQLException: Column 'Magic_name' not found.
	at com.mysql.jdbc.SQLError.createSQLException(SQLError.java:1074)
	at com.mysql.jdbc.SQLError.createSQLException(SQLError.java:988)
	at com.mysql.jdbc.SQLError.createSQLException(SQLError.java:974)
	at com.mysql.jdbc.SQLError.createSQLException(SQLError.java:919)
	at com.mysql.jdbc.ResultSetImpl.findColumn(ResultSetImpl.java:1166)
	at com.mysql.jdbc.ResultSetImpl.getString(ResultSetImpl.java:5732)
	at org.apache.commons.dbcp.DelegatingResultSet.getString(DelegatingResultSet.java:263)
	at org.apache.commons.dbcp.DelegatingResultSet.getString(DelegatingResultSet.java:263)
	at org.apache.commons.dbcp.DelegatingResultSet.getString(DelegatingResultSet.java:263)
	at l1j.server.server.datatables.ItemTable.allEtcItem(Unknown Source)
	at l1j.server.server.datatables.ItemTable.<init>(Unknown Source)
	at l1j.server.server.datatables.ItemTable.getInstance(Unknown Source)
	at l1j.server.server.model.ElementalStoneGenerator.putElementalStone(Unknown Source)
	at l1j.server.server.model.ElementalStoneGenerator.run(Unknown Source)
	at java.util.concurrent.ThreadPoolExecutor.runWorker(Unknown Source)
	at java.util.concurrent.ThreadPoolExecutor$Worker.run(Unknown Source)
	at java.lang.Thread.run(Unknown Source)

八月 04, 2020 3:14:13 上午 l1j.server.server.datatables.ItemTable allEtcItem
嚴重: Column 'Magic_name' not found.
java.sql.SQLException: Column 'Magic_name' not found.
	at com.mysql.jdbc.SQLError.createSQLException(SQLError.java:1074)
	at com.mysql.jdbc.SQLError.createSQLException(SQLError.java:988)
	at com.mysql.jdbc.SQLError.createSQLException(SQLError.java:974)
	at com.mysql.jdbc.SQLError.createSQLException(SQLError.java:919)
	at com.mysql.jdbc.ResultSetImpl.findColumn(ResultSetImpl.java:1166)
	at com.mysql.jdbc.ResultSetImpl.getString(ResultSetImpl.java:5732)
	at org.apache.commons.dbcp.DelegatingResultSet.getString(DelegatingResultSet.java:263)
	at org.apache.commons.dbcp.DelegatingResultSet.getString(DelegatingResultSet.java:263)
	at org.apache.commons.dbcp.DelegatingResultSet.getString(DelegatingResultSet.java:263)
	at l1j.server.server.datatables.ItemTable.allEtcItem(Unknown Source)
	at l1j.server.server.datatables.ItemTable.<init>(Unknown Source)
	at l1j.server.server.datatables.ItemTable.getInstance(Unknown Source)
	at l1j.server.server.datatables.NpcShopTable.loadShop(Unknown Source)
	at l1j.server.server.datatables.NpcShopTable.loadShops(Unknown Source)
	at l1j.server.server.datatables.NpcShopTable.<init>(Unknown Source)
	at l1j.server.server.datatables.NpcShopTable.getInstance(Unknown Source)
	at server.GameServer.initialize(Unknown Source)
	at server.Server.startGameServer(Unknown Source)
	at server.Server.start(Unknown Source)
	at server.manager.eva.initialize(Unknown Source)
	at server.manager.eva.<init>(Unknown Source)
	at server.manager.eva$1.run(Unknown Source)
	at java.awt.event.InvocationEvent.dispatch(Unknown Source)
	at java.awt.EventQueue.dispatchEventImpl(Unknown Source)
	at java.awt.EventQueue.access$500(Unknown Source)
	at java.awt.EventQueue$3.run(Unknown Source)
	at java.awt.EventQueue$3.run(Unknown Source)
	at java.security.AccessController.doPrivileged(Native Method)
	at java.security.ProtectionDomain$JavaSecurityAccessImpl.doIntersectionPrivilege(Unknown Source)
	at java.awt.EventQueue.dispatchEvent(Unknown Source)
	at java.awt.EventDispatchThread.pumpOneEventForFilters(Unknown Source)
	at java.awt.EventDispatchThread.pumpEventsForFilter(Unknown Source)
	at java.awt.EventDispatchThread.pumpEventsForHierarchy(Unknown Source)
	at java.awt.EventDispatchThread.pumpEvents(Unknown Source)
	at java.awt.EventDispatchThread.pumpEvents(Unknown Source)
	at java.awt.EventDispatchThread.run(Unknown Source)

八月 04, 2020 3:14:13 上午 l1j.server.server.datatables.ItemTable allWeapon
嚴重: Column 'regist_technique' not found.
java.sql.SQLException: Column 'regist_technique' not found.
	at com.mysql.jdbc.SQLError.createSQLException(SQLError.java:1074)
	at com.mysql.jdbc.SQLError.createSQLException(SQLError.java:988)
	at com.mysql.jdbc.SQLError.createSQLException(SQLError.java:974)
	at com.mysql.jdbc.SQLError.createSQLException(SQLError.java:919)
	at com.mysql.jdbc.ResultSetImpl.findColumn(ResultSetImpl.java:1166)
	at com.mysql.jdbc.ResultSetImpl.getInt(ResultSetImpl.java:2850)
	at org.apache.commons.dbcp.DelegatingResultSet.getInt(DelegatingResultSet.java:275)
	at org.apache.commons.dbcp.DelegatingResultSet.getInt(DelegatingResultSet.java:275)
	at org.apache.commons.dbcp.DelegatingResultSet.getInt(DelegatingResultSet.java:275)
	at l1j.server.server.datatables.ItemTable.allWeapon(Unknown Source)
	at l1j.server.server.datatables.ItemTable.<init>(Unknown Source)
	at l1j.server.server.datatables.ItemTable.getInstance(Unknown Source)
	at l1j.server.server.model.ElementalStoneGenerator.putElementalStone(Unknown Source)
	at l1j.server.server.model.ElementalStoneGenerator.run(Unknown Source)
	at java.util.concurrent.ThreadPoolExecutor.runWorker(Unknown Source)
	at java.util.concurrent.ThreadPoolExecutor$Worker.run(Unknown Source)
	at java.lang.Thread.run(Unknown Source)

八月 04, 2020 3:14:13 上午 l1j.server.server.datatables.ItemTable allWeapon
嚴重: Column 'regist_technique' not found.
java.sql.SQLException: Column 'regist_technique' not found.
	at com.mysql.jdbc.SQLError.createSQLException(SQLError.java:1074)
	at com.mysql.jdbc.SQLError.createSQLException(SQLError.java:988)
	at com.mysql.jdbc.SQLError.createSQLException(SQLError.java:974)
	at com.mysql.jdbc.SQLError.createSQLException(SQLError.java:919)
	at com.mysql.jdbc.ResultSetImpl.findColumn(ResultSetImpl.java:1166)
	at com.mysql.jdbc.ResultSetImpl.getInt(ResultSetImpl.java:2850)
	at org.apache.commons.dbcp.DelegatingResultSet.getInt(DelegatingResultSet.java:275)
	at org.apache.commons.dbcp.DelegatingResultSet.getInt(DelegatingResultSet.java:275)
	at org.apache.commons.dbcp.DelegatingResultSet.getInt(DelegatingResultSet.java:275)
	at l1j.server.server.datatables.ItemTable.allWeapon(Unknown Source)
	at l1j.server.server.datatables.ItemTable.<init>(Unknown Source)
	at l1j.server.server.datatables.ItemTable.getInstance(Unknown Source)
	at l1j.server.server.datatables.NpcShopTable.loadShop(Unknown Source)
	at l1j.server.server.datatables.NpcShopTable.loadShops(Unknown Source)
	at l1j.server.server.datatables.NpcShopTable.<init>(Unknown Source)
	at l1j.server.server.datatables.NpcShopTable.getInstance(Unknown Source)
	at server.GameServer.initialize(Unknown Source)
	at server.Server.startGameServer(Unknown Source)
	at server.Server.start(Unknown Source)
	at server.manager.eva.initialize(Unknown Source)
	at server.manager.eva.<init>(Unknown Source)
	at server.manager.eva$1.run(Unknown Source)
	at java.awt.event.InvocationEvent.dispatch(Unknown Source)
	at java.awt.EventQueue.dispatchEventImpl(Unknown Source)
	at java.awt.EventQueue.access$500(Unknown Source)
	at java.awt.EventQueue$3.run(Unknown Source)
	at java.awt.EventQueue$3.run(Unknown Source)
	at java.security.AccessController.doPrivileged(Native Method)
	at java.security.ProtectionDomain$JavaSecurityAccessImpl.doIntersectionPrivilege(Unknown Source)
	at java.awt.EventQueue.dispatchEvent(Unknown Source)
	at java.awt.EventDispatchThread.pumpOneEventForFilters(Unknown Source)
	at java.awt.EventDispatchThread.pumpEventsForFilter(Unknown Source)
	at java.awt.EventDispatchThread.pumpEventsForHierarchy(Unknown Source)
	at java.awt.EventDispatchThread.pumpEvents(Unknown Source)
	at java.awt.EventDispatchThread.pumpEvents(Unknown Source)
	at java.awt.EventDispatchThread.run(Unknown Source)

八月 04, 2020 3:14:13 上午 l1j.server.server.datatables.ItemTable allArmor
嚴重: Column 'regist_technique' not found.
java.sql.SQLException: Column 'regist_technique' not found.
	at com.mysql.jdbc.SQLError.createSQLException(SQLError.java:1074)
	at com.mysql.jdbc.SQLError.createSQLException(SQLError.java:988)
	at com.mysql.jdbc.SQLError.createSQLException(SQLError.java:974)
	at com.mysql.jdbc.SQLError.createSQLException(SQLError.java:919)
	at com.mysql.jdbc.ResultSetImpl.findColumn(ResultSetImpl.java:1166)
	at com.mysql.jdbc.ResultSetImpl.getInt(ResultSetImpl.java:2850)
	at org.apache.commons.dbcp.DelegatingResultSet.getInt(DelegatingResultSet.java:275)
	at org.apache.commons.dbcp.DelegatingResultSet.getInt(DelegatingResultSet.java:275)
	at org.apache.commons.dbcp.DelegatingResultSet.getInt(DelegatingResultSet.java:275)
	at l1j.server.server.datatables.ItemTable.allArmor(Unknown Source)
	at l1j.server.server.datatables.ItemTable.<init>(Unknown Source)
	at l1j.server.server.datatables.ItemTable.getInstance(Unknown Source)
	at l1j.server.server.model.ElementalStoneGenerator.putElementalStone(Unknown Source)
	at l1j.server.server.model.ElementalStoneGenerator.run(Unknown Source)
	at java.util.concurrent.ThreadPoolExecutor.runWorker(Unknown Source)
	at java.util.concurrent.ThreadPoolExecutor$Worker.run(Unknown Source)
	at java.lang.Thread.run(Unknown Source)

八月 04, 2020 3:14:13 上午 l1j.server.server.datatables.ItemTable allArmor
嚴重: Column 'regist_technique' not found.
java.sql.SQLException: Column 'regist_technique' not found.
	at com.mysql.jdbc.SQLError.createSQLException(SQLError.java:1074)
	at com.mysql.jdbc.SQLError.createSQLException(SQLError.java:988)
	at com.mysql.jdbc.SQLError.createSQLException(SQLError.java:974)
	at com.mysql.jdbc.SQLError.createSQLException(SQLError.java:919)
	at com.mysql.jdbc.ResultSetImpl.findColumn(ResultSetImpl.java:1166)
	at com.mysql.jdbc.ResultSetImpl.getInt(ResultSetImpl.java:2850)
	at org.apache.commons.dbcp.DelegatingResultSet.getInt(DelegatingResultSet.java:275)
	at org.apache.commons.dbcp.DelegatingResultSet.getInt(DelegatingResultSet.java:275)
	at org.apache.commons.dbcp.DelegatingResultSet.getInt(DelegatingResultSet.java:275)
	at l1j.server.server.datatables.ItemTable.allArmor(Unknown Source)
	at l1j.server.server.datatables.ItemTable.<init>(Unknown Source)
	at l1j.server.server.datatables.ItemTable.getInstance(Unknown Source)
	at l1j.server.server.datatables.NpcShopTable.loadShop(Unknown Source)
	at l1j.server.server.datatables.NpcShopTable.loadShops(Unknown Source)
	at l1j.server.server.datatables.NpcShopTable.<init>(Unknown Source)
	at l1j.server.server.datatables.NpcShopTable.getInstance(Unknown Source)
	at server.GameServer.initialize(Unknown Source)
	at server.Server.startGameServer(Unknown Source)
	at server.Server.start(Unknown Source)
	at server.manager.eva.initialize(Unknown Source)
	at server.manager.eva.<init>(Unknown Source)
	at server.manager.eva$1.run(Unknown Source)
	at java.awt.event.InvocationEvent.dispatch(Unknown Source)
	at java.awt.EventQueue.dispatchEventImpl(Unknown Source)
	at java.awt.EventQueue.access$500(Unknown Source)
	at java.awt.EventQueue$3.run(Unknown Source)
	at java.awt.EventQueue$3.run(Unknown Source)
	at java.security.AccessController.doPrivileged(Native Method)
	at java.security.ProtectionDomain$JavaSecurityAccessImpl.doIntersectionPrivilege(Unknown Source)
	at java.awt.EventQueue.dispatchEvent(Unknown Source)
	at java.awt.EventDispatchThread.pumpOneEventForFilters(Unknown Source)
	at java.awt.EventDispatchThread.pumpEventsForFilter(Unknown Source)
	at java.awt.EventDispatchThread.pumpEventsForHierarchy(Unknown Source)
	at java.awt.EventDispatchThread.pumpEvents(Unknown Source)
	at java.awt.EventDispatchThread.pumpEvents(Unknown Source)
	at java.awt.EventDispatchThread.run(Unknown Source)

八月 04, 2020 3:14:16 上午 l1j.server.server.datatables.ClanTable <init>
嚴重: Column 'EinhasadBlessBuff' not found.
java.sql.SQLException: Column 'EinhasadBlessBuff' not found.
	at com.mysql.jdbc.SQLError.createSQLException(SQLError.java:1074)
	at com.mysql.jdbc.SQLError.createSQLException(SQLError.java:988)
	at com.mysql.jdbc.SQLError.createSQLException(SQLError.java:974)
	at com.mysql.jdbc.SQLError.createSQLException(SQLError.java:919)
	at com.mysql.jdbc.ResultSetImpl.findColumn(ResultSetImpl.java:1166)
	at com.mysql.jdbc.ResultSetImpl.getInt(ResultSetImpl.java:2850)
	at org.apache.commons.dbcp.DelegatingResultSet.getInt(DelegatingResultSet.java:275)
	at org.apache.commons.dbcp.DelegatingResultSet.getInt(DelegatingResultSet.java:275)
	at org.apache.commons.dbcp.DelegatingResultSet.getInt(DelegatingResultSet.java:275)
	at l1j.server.server.datatables.ClanTable.<init>(Unknown Source)
	at l1j.server.server.datatables.ClanTable.getInstance(Unknown Source)
	at server.GameServer.initialize(Unknown Source)
	at server.Server.startGameServer(Unknown Source)
	at server.Server.start(Unknown Source)
	at server.manager.eva.initialize(Unknown Source)
	at server.manager.eva.<init>(Unknown Source)
	at server.manager.eva$1.run(Unknown Source)
	at java.awt.event.InvocationEvent.dispatch(Unknown Source)
	at java.awt.EventQueue.dispatchEventImpl(Unknown Source)
	at java.awt.EventQueue.access$500(Unknown Source)
	at java.awt.EventQueue$3.run(Unknown Source)
	at java.awt.EventQueue$3.run(Unknown Source)
	at java.security.AccessController.doPrivileged(Native Method)
	at java.security.ProtectionDomain$JavaSecurityAccessImpl.doIntersectionPrivilege(Unknown Source)
	at java.awt.EventQueue.dispatchEvent(Unknown Source)
	at java.awt.EventDispatchThread.pumpOneEventForFilters(Unknown Source)
	at java.awt.EventDispatchThread.pumpEventsForFilter(Unknown Source)
	at java.awt.EventDispatchThread.pumpEventsForHierarchy(Unknown Source)
	at java.awt.EventDispatchThread.pumpEvents(Unknown Source)
	at java.awt.EventDispatchThread.pumpEvents(Unknown Source)
	at java.awt.EventDispatchThread.run(Unknown Source)

